HW2
…
Rows: 42 Columns: 8
── Column specification ────────────────────────────────────────────────────────
Delimiter: ","
chr  (1): Official charity
dbl  (6): Year, Applicants, Accepted, Starters, Finishers, Raised
date (1): Date

ℹ Use `spec()` to retrieve the full column specification for this data.
ℹ Specify the column types or set `show_col_types = FALSE` to quiet this message.

# What does the data look like?
london_marathon

# A tibble: 42 × 8
   Date        Year Applicants Accepted Starters Finishers Raised
   <date>     <dbl>      <dbl>    <dbl>    <dbl>     <dbl>  <dbl>
 1 1981-03-29  1981      20000     7747     7055      6255     NA
 2 1982-05-09  1982      90000    18059    16350     15116     NA
 3 1983-04-17  1983      60000    19735    16500     15793     NA
 4 1984-05-13  1984      70000    21142    16992     15675     NA
 5 1985-04-21  1985      83000    22274    17500     15873     NA
 6 1986-04-20  1986      80000    25566    19261     18067     NA
 7 1987-05-10  1987      80000    28364    21485     19586     NA
 8 1988-04-17  1988      73000    29979    22469     20932     NA
 9 1989-04-23  1989      72000    31772    24452     22701     NA
10 1990-04-22  1990      73000    34882    26500     25013     NA
# ℹ 32 more rows
# ℹ 1 more variable: `Official charity` <chr>
…
